<?xml version="1.0" encoding="utf-8"?>
<!-- Generator: Adobe Illustrator 22.0.0, SVG Export Plug-In . SVG Version: 6.00 Build 0)  -->
<svg version="1.1" id="Layer_1" xmlns="http://www.w3.org/2000/svg" xmlns:xlink="http://www.w3.org/1999/xlink" x="0px" y="0px"
	 viewBox="0 0 14 14" style="enable-background:new 0 0 14 14;" xml:space="preserve">
<style type="text/css">
	.st0{fill:#5856D6;}
</style>
<g>
	<path class="st0" d="M12.7,8.9C12,8.5,11.3,8.5,11.3,6C11.3,2.2,7,2.2,7,2.2S2.7,2.2,2.7,6c0,2.3-0.7,2.4-1.4,2.9s-0.9,0.7-0.9,1.2
		s0,0.9,0,0.9H7h6.6c0,0,0-0.5,0-0.9S13.4,9.4,12.7,8.9z"/>
	<circle class="st0" cx="7" cy="1.5" r="1.5"/>
	<path class="st0" d="M7,14c1.2,0,2.2-1,2.2-2.2H4.8C4.8,13,5.8,14,7,14z"/>
</g>
</svg>
